CONJ620: CM 1.6
…
Explore a new dataset

Go to the gapminder site and find a new indicator that interests you.

Download the data file to a folder in your .Rproj directory, and open the .xlsx file to see where the data is (i.e., which sheet).

Read the data file into your EDA .Rmd document using the readxl package (remember, it must be installed first). Use the here package, with the here function, to build up the relative file path (example code-through). Here is an example code chunk:

internet <- read_xlsx(here::here("data", "Internet user per 100.xlsx"),
                      sheet = 1) %>% 
  clean_names() # highly recommended

internet

# A tibble: 275 x 23
   internet_users_… x1990 x1991 x1992 x1993    x1994    x1995    x1996
   <chr>            <dbl> <dbl> <dbl> <dbl>    <dbl>    <dbl>    <dbl>
 1 Abkhazia            NA    NA    NA    NA NA       NA       NA      
 2 Afghanistan          0    NA    NA    NA NA       NA       NA      
 3 Akrotiri and Dh…    NA    NA    NA    NA NA       NA       NA      
 4 Albania              0    NA    NA    NA NA        0.0112   3.22e-2
 5 Algeria              0    NA    NA    NA  3.61e-4  0.00177  1.74e-3
 6 American Samoa       0    NA    NA    NA NA       NA       NA      
 7 Andorra              0    NA    NA    NA NA       NA        1.53e+0
 8 Angola               0    NA    NA    NA NA       NA        7.76e-4
 9 Anguilla            NA    NA    NA    NA NA       NA       NA      
10 Antigua and Bar…     0    NA    NA    NA NA        2.20     2.86e+0
# ... with 265 more rows, and 15 more variables: x1997 <dbl>, x1998 <dbl>,
#   x1999 <dbl>, x2000 <dbl>, x2001 <dbl>, x2002 <dbl>, x2003 <dbl>,
#   x2004 <dbl>, x2005 <dbl>, x2006 <dbl>, x2007 <dbl>, x2008 <dbl>,
#   x2009 <dbl>, x2010 <dbl>, x2011 <dbl>
…
Gather the data (most data from gapminder has columns in years).

internet_tidy <- internet %>%
  rename(country = 1) %>% 
  gather(year, users_per_100, -country) %>% 
  mutate(year = readr::parse_number(year)) 

# another example dataset
age_marriage <- read_xlsx(here::here("data", "indicator age of marriage.xlsx"),
                      sheet = 1) 

age_marriage

# A tibble: 185 x 117
   X__1  `1616.0` `1666.0` `1685.0` `1710.0` `1716.0` `1735.0` `1760.0`
   <chr>    <dbl>    <dbl>    <dbl>    <dbl>    <dbl>    <dbl>    <dbl>
 1 Afgh…       NA       NA       NA       NA       NA       NA       NA
 2 Alba…       NA       NA       NA       NA       NA       NA       NA
 3 Alge…       NA       NA       NA       NA       NA       NA       NA
 4 Ango…       NA       NA       NA       NA       NA       NA       NA
 5 Arge…       NA       NA       NA       NA       NA       NA       NA
 6 Arme…       NA       NA       NA       NA       NA       NA       NA
 7 Aust…       NA       NA       NA       NA       NA       NA       NA
 8 Aust…       NA       NA       NA       NA       NA       NA       NA
 9 Azer…       NA       NA       NA       NA       NA       NA       NA
10 Baha…       NA       NA       NA       NA       NA       NA       NA
# ... with 175 more rows, and 109 more variables: `1766.0` <dbl>,
#   `1775.0` <dbl>, `1780.0` <dbl>, `1785.0` <dbl>, `1791.0` <dbl>,
#   `1800.0` <dbl>, `1810.0` <dbl>, `1815.0` <dbl>, `1825.0` <dbl>,
#   `1835.0` <dbl>, `1840.0` <dbl>, `1845.0` <dbl>, `1855.0` <dbl>,
#   `1860.0` <dbl>, `1865.0` <dbl>, `1866.0` <dbl>, `1870.0` <dbl>,
#   `1875.0` <dbl>, `1879.0` <dbl>, `1880.0` <dbl>, `1885.0` <dbl>,
#   `1887.0` <dbl>, `1890.0` <dbl>, `1895.0` <dbl>, `1897.0` <dbl>,
#   `1900.0` <dbl>, `1901.0` <dbl>, `1903.0` <dbl>, `1905.0` <dbl>,
#   `1906.0` <dbl>, `1907.0` <dbl>, `1910.0` <dbl>, `1911.0` <dbl>,
…
marriage_tidy <- age_marriage %>% 
  rename(country = 1) %>% 
  gather(year, age_first_marriage, -country) %>% 
  mutate(year = readr::parse_number(year))
marriage_tidy

# A tibble: 21,460 x 3
   country      year age_first_marriage
   <chr>       <dbl>              <dbl>
 1 Afghanistan  1616                 NA
 2 Albania      1616                 NA
 3 Algeria      1616                 NA
 4 Angola       1616                 NA
 5 Argentina    1616                 NA
 6 Armenia      1616                 NA
 7 Australia    1616                 NA
 8 Austria      1616                 NA
 9 Azerbaijan   1616                 NA
10 Bahamas      1616                 NA
# ... with 21,450 more rows

Pathological in the same way as the previous…

# yet another example dataset
alcohol <- read_xlsx(here::here("data", "indicator alcohol consumption  20100830.xlsx"),
                      sheet = 1) 

alcohol

# A tibble: 189 x 25
   X__1  `1985.0` `1986.0` `1987.0` `1988.0` `1989.0` `1990.0` `1991.0`
   <chr>    <dbl>    <dbl>    <dbl>    <dbl>    <dbl>    <dbl>    <dbl>
 1 Afgh…       NA       NA       NA       NA       NA       NA       NA
 2 Alba…       NA       NA       NA       NA       NA       NA       NA
 3 Alge…       NA       NA       NA       NA       NA       NA       NA
 4 Ando…       NA       NA       NA       NA       NA       NA       NA
 5 Ango…       NA       NA       NA       NA       NA       NA       NA
 6 Anti…       NA       NA       NA       NA       NA       NA       NA
 7 Arge…       NA       NA       NA       NA       NA       NA       NA
 8 Arme…       NA       NA       NA       NA       NA       NA       NA
 9 Aust…       NA       NA       NA       NA       NA       NA       NA
10 Aust…       NA       NA       NA       NA       NA       NA       NA
# ... with 179 more rows, and 17 more variables: `1992.0` <dbl>,
#   `1993.0` <dbl>, `1994.0` <dbl>, `1995.0` <dbl>, `1996.0` <dbl>,
#   `1997.0` <lgl>, `1998.0` <dbl>, `1999.0` <lgl>, `2000.0` <dbl>,
#   `2001.0` <dbl>, `2002.0` <dbl>, `2003.0` <dbl>, `2004.0` <dbl>,
#   `2005.0` <dbl>, `2006.0` <dbl>, `2007.0` <dbl>, `2008.0` <dbl>

alc_tidy <- alcohol %>% 
  rename(country = 1) %>% 
  gather(year, alc_per_adult, -country) %>% 
  mutate(year = readr::parse_number(year))
alc_tidy

# A tibble: 4,536 x 3
   country              year alc_per_adult
   <chr>               <dbl>         <dbl>
 1 Afghanistan          1985            NA
 2 Albania              1985            NA
 3 Algeria              1985            NA
 4 Andorra              1985            NA
 5 Angola               1985            NA
 6 Antigua and Barbuda  1985            NA
 7 Argentina            1985            NA
 8 Armenia              1985            NA
 9 Australia            1985            NA
10 Austria              1985            NA
# ... with 4,526 more rows
…
