Class Meeting 1.2 (cm012)
…
DR1TFOLA: folate intake (μg/day)

RIAGENDR: sex, coded as 1/2

BMXBMI: body mass index (kg/m2)

RIDAGEY: age (years)

1. How many rows and columns are in the heart data?

# 200 rows, 10 cols
heart

# A tibble: 200 x 10
   BPXSAR BPXDAR BPXDI1 BPXDI2 race_ethc gender DR1TFOLA RIAGENDR BMXBMI
    <dbl>  <dbl>  <int>  <int> <chr>     <chr>     <int>    <int>  <dbl>
 1   129.   50.7     48     48 White no… Male        334        1   19.7
 2   117.   75.3     76     78 White no… Male        656        1   28.4
 3   127    80       76     76 White no… Male        220        1   24.8
 4   105    60       64     56 White no… Female      199        2   30.3
 5   113    57       54     56 White no… Male        541        1   21.2
 6   141.   82.7     80     78 White no… Male        262        1   27.6
 7   125    57       52     NA White no… Female      203        2   18.7
 8   135    75       NA     80 White no… Female      178        2   32.3
 9   123.   74       76     NA White no… Male       1027        1   19.4
10   131.   84.7     90     80 White no… Male        571        1   30.7
# ... with 190 more rows, and 1 more variable: RIDAGEYR <int>

2. Use dplyr to answer these questions:

What is the minimum age in years?

What is the maximum age in years?

# way one with arrange
# min is 8 y
heart %>% 
  arrange(RIDAGEYR)

# A tibble: 200 x 10
   BPXSAR BPXDAR BPXDI1 BPXDI2 race_ethc gender DR1TFOLA RIAGENDR BMXBMI
    <dbl>  <dbl>  <int>  <int> <chr>     <chr>     <int>    <int>  <dbl>
 1  113     47       44     NA White no… Male        340        1   15.5
 2  102     58       62     62 Black no… Male        836        1   14.8
 3  108     75       70     NA White no… Female      466        2   16.9
 4   94     52       52     NA White no… Female     1231        2   28.9
 5   84     52       52     NA Hispanic  Female      295        2   13  
 6   93.3   44.7     38     44 Black no… Female      309        2   18.1
 7   96     61       66     64 White no… Female      135        2   15.6
 8  101     59       58     60 White no… Male        205        1   17.7
 9   99     61       56     60 Other     Male        812        1   15.7
10  105.    58.7     58     58 Hispanic  Male        593        1   32.6
# ... with 190 more rows, and 1 more variable: RIDAGEYR <int>

# max is 84 y
heart %>% 
  arrange(desc(RIDAGEYR))

# A tibble: 200 x 10
   BPXSAR BPXDAR BPXDI1 BPXDI2 race_ethc gender DR1TFOLA RIAGENDR BMXBMI
    <dbl>  <dbl>  <int>  <int> <chr>     <chr>     <int>    <int>  <dbl>
 1   129.   50.7     48     48 White no… Male        334        1   19.7
 2   129.   50.7     48     48 White no… Male        334        1   19.7
 3   180    82       82     NA White no… Female      238        2   22.2
 4   147.   60.7     60     62 White no… Female      136        2   33.3
 5   116    58       48     64 White no… Female      192        2   28.2
 6   102    56       56     NA White no… Male         81        1   21.5
 7   148    80.7     NA     80 White no… Male        690        1   24.3
 8   130    84       84     86 White no… Male        179        1   30.9
 9   144    74       74     NA Other     Female       70        2   NA  
10   125    63       58     68 White no… Female      224        2   27.1
# ... with 190 more rows, and 1 more variable: RIDAGEYR <int>
…
