CONJ620: CM 2.6
…
Which are categorical variables (numeric or character variables with variables that have a fixed and known set of possible values; aka factor variables)?

Complete this sentence: “There is one row per…”

What are the correlations between variables? Does each scatterplot support a linear relationship between variables? Do any of the correlations appear to be conditional on the value of a categorical variable (like sex)?

At this stage, you may also find you want to use filter, mutate, arrange, select, or count. Let your questions lead you!

5.1 EDA Solutions

vitd %>% 
  count(id, sort = TRUE)

# A tibble: 537 x 2
      id     n
   <dbl> <int>
 1   101     1
 2   102     1
 3   104     1
 4   105     1
 5   106     1
 6   107     1
 7   108     1
 8   110     1
 9   112     1
10   113     1
# ... with 527 more rows
…
# discrepancy
d_diag %>%
  filter(abs(.ext.resid) >= 2) %>%
  select(id, ageyears, .resid, .std.resid, .ext.resid) %>% 
  arrange(desc(abs(.ext.resid)))

# A tibble: 26 x 5
      id ageyears .resid .std.resid .ext.resid
   <dbl>    <dbl>  <dbl>      <dbl>      <dbl>
 1   616     8.82   47.2       3.51       3.55
 2   156     8.27  -46.5      -3.46      -3.50
 3   524     9.62   46.1       3.43       3.46
 4   658    11.9    43.8       3.26       3.29
 5   446     9.41   41.4       3.08       3.10
 6   740     9.90   37.7       2.80       2.82
 7   701     6.96   36.8       2.75       2.77
 8   403     8.05  -36.2      -2.70      -2.71
 9   850    10.9    35.0       2.60       2.61
10   158     9.47   33.9       2.51       2.53
# ... with 16 more rows
…
n <- nrow(small_vitd)
k <- 3 # predictors (not including intercept)
d <- 4/(n - k - 1)
d

[1] 0.00750469

d_diag %>%
  filter(.cooksd > d) %>% 
  select(id, x25d, .cooksd) %>% 
  arrange(desc(.cooksd))

# A tibble: 28 x 3
      id  x25d .cooksd
   <dbl> <dbl>   <dbl>
 1   156  36.1  0.0255
 2  1054  46.6  0.0239
 3   701 113    0.0221
 4   658 124    0.0214
 5   524 125    0.0167
 6   656 109    0.0164
 7   616 127    0.0162
 8   740 116    0.0143
 9   229  41.8  0.0132
10   755  58.4  0.0128
# ... with 18 more rows
…
