CONJ620: CM 2.4
…
How many rows do we have per state? Is there ever more than 1 year per state?

hate_crimes %>% 
  count(state, sort = TRUE)

# A tibble: 51 x 2
   state                    n
   <chr>                <int>
 1 Alabama                  1
 2 Alaska                   1
 3 Arizona                  1
 4 Arkansas                 1
 5 California               1
 6 Colorado                 1
 7 Connecticut              1
 8 Delaware                 1
 9 District of Columbia     1
10 Florida                  1
# ... with 41 more rows
…
