CONJ620: CM 3.2
…
Now let’s generate 10,000 replicates, calculate the mean for each replicate, and make a histogram to show the distribution of all the 10,000 calculated means.

set.seed(1701)
mh_boot <- male_heights %>% 
  specify(response = HTM4) %>% 
  generate(reps = 1000, type = "bootstrap") 

mh_boot %>% 
  count(replicate)

# A tibble: 1,000 x 2
# Groups:   replicate [1,000]
   replicate      n
       <int>  <int>
 1         1 204509
 2         2 204509
 3         3 204509
 4         4 204509
 5         5 204509
 6         6 204509
 7         7 204509
 8         8 204509
 9         9 204509
10        10 204509
# ... with 990 more rows
…
