CONJ620: CM 4.2
…
Our First Sampling Distribution: 2 rolls

...where the number of rolls n = 2

First, let's create a data frame that defines our sample space. Remember, our sample space is about what is possible, not probable. The variables here are:

x = number of pips on our n = 2 die rolls

(omega_n2 <- crossing(roll1 = x, roll2 = x))

# A tibble: 36 x 2
   roll1 roll2
   <int> <int>
 1     1     1
 2     1     2
 3     1     3
 4     1     4
 5     1     5
 6     1     6
 7     2     1
 8     2     2
 9     2     3
10     2     4
# ... with 26 more rows
…
omega_n2 %>% 
  tally()

# A tibble: 1 x 1
      n
  <int>
1    36

Given that we know our random variable is a statistic- the mean number of pips across roll1 and roll2- what are the sample means of all possible samples in sample space? To answer, we can use the dplyr function mutate to create a new variable that is the mean number of pips for all possible combinations.

omega_n2 <- omega_n2 %>%
  mutate(xbar_i = (roll1 + roll2)/2)
omega_n2

# A tibble: 36 x 3
   roll1 roll2 xbar_i
   <int> <int>  <dbl>
 1     1     1    1  
 2     1     2    1.5
 3     1     3    2  
 4     1     4    2.5
 5     1     5    3  
 6     1     6    3.5
 7     2     1    1.5
 8     2     2    2  
 9     2     3    2.5
10     2     4    3  
# ... with 26 more rows
…
