CONJ620: CM 1.1
…
## Where are you starting from?

---

```r
heard_of <- hi %>% 
  select(id, starts_with("heard_of")) %>% 
  gather(option, heard_of, starts_with("heard_of"), na.rm = TRUE) 

heard_of
```

```
# A tibble: 55 x 3
      id option     heard_of
 * <int> <chr>      <chr>   
 1     1 heard_of_2 R       
 2     3 heard_of_2 R       
 3     4 heard_of_2 R       
 4     5 heard_of_2 R       
 5     8 heard_of_2 R       
 6    10 heard_of_2 R       
 7    11 heard_of_2 R       
 8    12 heard_of_2 R       
 9    14 heard_of_2 R       
10    16 heard_of_2 R       
# ... with 45 more rows
```
…
<img src="cm011_files/figure-html/unnamed-chunk-10-1.png" width="65%" style="display: block; margin: auto;" />

---

```r
used <- hi %>% 
  select(id, starts_with("used_for_stats")) %>% 
  gather(option, used_for_stats, starts_with("used_for_stats"), na.rm = TRUE) 

used
```

```
# A tibble: 62 x 3
      id option          used_for_stats
 * <int> <chr>           <chr>         
 1     1 used_for_stats1 Excel         
 2     2 used_for_stats1 Excel         
 3     3 used_for_stats1 Excel         
 4     4 used_for_stats1 Excel         
 5     5 used_for_stats1 Excel         
 6     6 used_for_stats1 Excel         
 7     7 used_for_stats1 Excel         
 8     8 used_for_stats1 Excel         
 9     9 used_for_stats1 Excel         
10    10 used_for_stats1 Excel         
# ... with 52 more rows
```
…
