CONJ620: CM 1.5
…
---
## Count by 2

```r
wb_stats %>% 
  count(continent, country) 
```

```
# A tibble: 206 x 3
   continent country                      n
   <chr>     <chr>                    <int>
 1 Africa    Algeria                     16
 2 Africa    Angola                      16
 3 Africa    Benin                       16
 4 Africa    Botswana                    16
 5 Africa    Burkina Faso                16
 6 Africa    Burundi                     16
 7 Africa    Cameroon                    16
 8 Africa    Cape Verde                  16
 9 Africa    Central African Republic    16
10 Africa    Chad                        16
# ... with 196 more rows
```
…
---
## Below vs. at/above average for each year

A little hard to read...

```r
wb_stats %>% 
  count(fertbyyear_cat)
```

```
# A tibble: 48 x 3
# Groups:   year [16]
   year  fertbyyear_cat          n
   <chr> <chr>               <int>
 1 2000  at or above average    76
 2 2000  below average         122
 3 2000  <NA>                    8
 4 2001  at or above average    76
 5 2001  below average         121
 6 2001  <NA>                    9
 7 2002  at or above average    76
 8 2002  below average         124
 9 2002  <NA>                    6
10 2003  at or above average    74
# ... with 38 more rows
```
…
