CONJ620: CM 1.2
…
1. Change an existing variable

--

```r
heart_bp <- heart %>% 
  select(BPXDI1, BPXDI2)

heart_bp %>% 
  mutate(year = 2015)
```

```
# A tibble: 200 x 3
   BPXDI1 BPXDI2  year
    <dbl>  <dbl> <dbl>
 1    48.    48. 2015.
 2    76.    78. 2015.
 3    76.    76. 2015.
 4    64.    56. 2015.
 5    54.    56. 2015.
 6    80.    78. 2015.
 7    52.    NA  2015.
 8    NA     80. 2015.
 9    76.    NA  2015.
10    90.    80. 2015.
# ... with 190 more rows
```
…
1. Create a new variable with a specific value

1. <font color="#ED1941">Create a new variable based on other variables</font> 

1. Change an existing variable

--

```r
heart_bp %>% 
  mutate(bp_ratio = BPXDI1 / BPXDI2)
```

```
# A tibble: 200 x 3
   BPXDI1 BPXDI2 bp_ratio
    <dbl>  <dbl>    <dbl>
 1    48.    48.    1.00 
 2    76.    78.    0.974
 3    76.    76.    1.00 
 4    64.    56.    1.14 
 5    54.    56.    0.964
 6    80.    78.    1.03 
 7    52.    NA    NA    
 8    NA     80.   NA    
 9    76.    NA    NA    
10    90.    80.    1.12 
# ... with 190 more rows
```
…
1. Create a new variable with a specific value

1. Create a new variable based on other variables

1. <font color="#ED1941">Change an existing variable</font> 

--

```r
heart_bp %>% 
  mutate(bp_ratio = bp_ratio * 100)
```

```
# A tibble: 200 x 3
   BPXDI1 BPXDI2 bp_ratio
    <dbl>  <dbl>    <dbl>
 1    48.    48.    100. 
 2    76.    78.     97.4
 3    76.    76.    100. 
 4    64.    56.    114. 
 5    54.    56.     96.4
 6    80.    78.    103. 
 7    52.    NA      NA  
 8    NA     80.     NA  
 9    76.    NA      NA  
10    90.    80.    112. 
# ... with 190 more rows
```
…
