CONJ620: CM 2.3
…
`$$b_1 = r \frac{s_y}{s_x}$$`

- The sum of the residuals is zero: 
`$$\sum_{i = 1}^n e_i = 0$$`

- The residuals and `\(x\)` values are uncorrelated.
---
## Fitted and residual values

```r
(crime_pts <- get_regression_points(crime_from_ph))
```

```
## # A tibble: 40 x 5
##       ID criminals public_houses criminals_hat residual
##    <int>     <dbl>         <dbl>         <dbl>    <dbl>
##  1     1       200           541          172.    27.8 
##  2     2       160           504          168.    -7.91
##  3     3       160           552          173.   -13.5 
##  4     4       147           295          144.     3.38
##  5     5       178           409          157.    21.1 
##  6     6       205           568          175.    29.7 
##  7     7       183           708          192.    -8.61
##  8     8       156           624          182.   -25.9 
##  9     9       173           463          163.     9.86
## 10    10       132           408          157.   -24.8 
## # ... with 30 more rows
```
…
