CONJ620: CM 3.2
…
--

.pull-left[

```r
resamp_heights %>% 
  count(replicate)
```

```
# A tibble: 1,000 x 2
# Groups:   replicate [1,000]
   replicate     n
       <int> <int>
 1         1    12
 2         2    12
 3         3    12
 4         4    12
 5         5    12
 6         6    12
 7         7    12
 8         8    12
 9         9    12
10        10    12
# ... with 990 more rows
```
]

.pull-right[

```r
resamp_heights %>% 
  group_by(replicate) %>% 
  summarize(xbar = mean(Height))
```

```
# A tibble: 1,000 x 2
   replicate   xbar
       <int>  <dbl>
 1         1 176.08
 2         2 170.33
 3         3 177.08
 4         4 170.25
 5         5 177.92
 6         6 178.58
 7         7 174.75
 8         8 173.58
 9         9 175.42
10        10 174.08
# ... with 990 more rows
```
…
